<?xml version="1.0" encoding="UTF-8" standalone="no"?>
<!DOCTYPE svg PUBLIC "-//W3C//DTD SVG 1.1//EN" "http://www.w3.org/Graphics/SVG/1.1/DTD/svg11.dtd">
<svg width="100%" height="100%" viewBox="0 0 512 256" version="1.1" xmlns="http://www.w3.org/2000/svg" xmlns:xlink="http://www.w3.org/1999/xlink" xml:space="preserve" xmlns:serif="http://www.serif.com/" style="fill-rule:evenodd;clip-rule:evenodd;stroke-linecap:round;stroke-linejoin:round;stroke-miterlimit:1.5;">
    <g transform="matrix(2.90909,0,0,2.90909,-3325.09,-6416)">
        <g transform="matrix(1,0,0,1,1,-2)">
            <path d="M1192,2240.07L1176,2224L1148,2224L1148,2279L1192,2279L1192,2240.07Z" style="fill:white;stroke:black;stroke-width:0.34px;"/>
        </g>
        <path d="M1177,2222L1177,2238L1193,2238" style="fill:white;stroke:black;stroke-width:0.34px;"/>
    </g>
    <g transform="matrix(2.90909,0,0,2.90909,-2976,-6416)">
        <g transform="matrix(1,0,0,1,1,-2)">
            <path d="M1192,2240.07L1176,2224L1148,2224L1148,2279L1192,2279L1192,2240.07Z" style="fill:white;stroke:black;stroke-width:0.34px;"/>
        </g>
        <path d="M1177,2222L1177,2238L1193,2238" style="fill:white;stroke:black;stroke-width:0.34px;"/>
    </g>
    <g transform="matrix(2.22967,0,0,2.22967,-3298.72,-4322.63)">
        <path d="M1605.8,1991.53L1605.8,1983.05L1633.85,1996.09L1605.8,2009.14L1605.8,2000.66L1583.18,2000.66L1583.18,2009.14L1555.12,1996.09L1583.18,1983.05L1583.18,1991.53L1605.8,1991.53Z" style="fill:white;stroke:black;stroke-width:0.45px;"/>
    </g>
</svg>
