^C:\USERS\TEMP\DESKTOP\NEW FOLDER\LAB6\GLUT_APP\BOUNCING_BALLS.CPP|C:\USERS\TEMP\DESKTOP\NEW FOLDER\LAB6\GLUT_APP\STDAFX.CPP
C:\USERS\TEMP\DESKTOP\NEW FOLDER\LAB6\GLUT_APP\X64\RELEASE\VC141.PDB
C:\USERS\TEMP\DESKTOP\NEW FOLDER\LAB6\GLUT_APP\X64\RELEASE\STDAFX.OBJ
C:\USERS\TEMP\DESKTOP\NEW FOLDER\LAB6\GLUT_APP\X64\RELEASE\BOUNCING_BALLS.OBJ
^C:\USERS\TEMP\DESKTOP\NEW FOLDER\LAB6\GLUT_APP\STDAFX.CPP
C:\USERS\TEMP\DESKTOP\NEW FOLDER\LAB6\GLUT_APP\X64\RELEASE\VC141.PDB
^C:\USERS\TEMP\DESKTOP\NEW FOLDER\LAB6\GLUT_APP\BOUNCING_BALLS.CPP
C:\USERS\TEMP\DESKTOP\NEW FOLDER\LAB6\GLUT_APP\X64\RELEASE\VC141.PDB
C:\USERS\TEMP\DESKTOP\NEW FOLDER\LAB6\GLUT_APP\X64\RELEASE\BOUNCING_BALLS.OBJ
