Tajemstvi: a_08-12-20-37-16_2d5b87a8f5861fb2f11750e19f3e223800facdd27a048bdb4d4b3044acebf390
Tajemstvi:b_07-12-12-00-01_9dd89c68ee13703763a1c9ef48e660533ca749f5d622599d678aa9780e0bbd83
Tajemstvi:c_07-12-12-00-01_c6b68936ee06c84881f7eaa103332b5effc2668625be16b72f058f5770663b29
Tajemstvi:d_07-12-08-00-01_42d1973a72b68ba48409b0395e106c6f6b322c5efee483677c38a68c08743ed0
Tajemstvi:e_08-12-20-00-01_ab644a10f6764172815fcbdae754007baf11c383aeda3eb2cd9feeabf3725815
Tajemstvi:f_08-12-20-00-01_9dd89c68ee13703763a1c9ef48e660533ca749f5d622599d678aa9780e0bbd83
Tajemstvi:g_07-12-14-00-02_d925a69aac1615b754db0c2b58ee0bb6c6510fe88cb102278a479b5d255429cd
Tajemstvi:h_08-12-22-00-02_1ca8ccea6d7a94045026b423b1d4dfc5f7edd06dfcaf484618c5bc17d06404c8
Tajemstvi:i_07-12-10-00-01_e00b63b6078030a4c2b747b60b21cdde9b1b22e4237065f8f18facf70a603f42
Tajemstvi:j_08-12-20-00-01_aa1a5c126400cd6a042fb96e37d7f8313fc552eb0b9381f78d1a85178ed57595
